667053 997431 525
701608 569100 509
802267 123680 509
617995 514612 452
937498 908389 476
577232 616545 447
29312 361260 443
530301 664113 509
390479 594252 470
398070 557225 470
533011 343443 470
346775 221187 443
555391 775551 509
544217 856098 525
246518 980882 525
525917 602959 452
501699 175297 449
274661 803362 509
765596 102795 509
405004 612073 470
547502 194131 470
442009 194640 449
383426 938252 525
665284 536117 509
599354 961047 525
21725 139670 354
673077 632239 442
206976 511358 449
224209 773125 509
586235 281238 470
230963 877657 525
539025 773043 509
691477 128683 509
636366 382153 509
372338 321752 441
628636 167418 509
599365 495775 470
635655 265178 509
645350 721388 504
325237 528191 470
772175 546628 509
375592 220715 443
279947 643549 509
458261 784039 509
620913 718346 509
869952 641476 525
683094 427143 509
307079 159012 443
261151 349700 441
708604 451758 509
461511 111072 449
299328 457928 449
762137 612771 509
485996 962536 525
471742 719969 509
665575 94105 509
336121 269947 407
141772 590889 470
359580 734317 509
381748 617258 470
362149 599065 470
969061 274267 525
403557 341200 441
671304 203330 509
665941 370388 509
315222 93647 443
419374 330301 449
523252 992232 525
334742 573751 470
912096 896574 476
430018 39294 449
481253 335628 449
989736 731073 525
749991 867363 525
284408 915817 525
392940 432632 449
950740 537909 525
153194 966379 525
694439 594425 509
829059 604790 509
525030 620393 452
795378 881842 525
239759 633954 509
911651 128952 525
525187 644806 509
526636 739895 509
142058 911559 525
41853 584107 470
913987 715076 525
954796 703047 525
252094 27770 443
442827 440868 356
465061 756670 509
286002 760984 509
313017 468256 449
462870 185063 449
133466 81229 354
46465 342930 443
553362 280385 470
33637 957486 525
15641 202196 383
760334 3987 509
9917 71581 340
426063 506178 444
708890 778844 468
510281 534181 470
88716 22335 351
206363 3607 383
269327 587308 470
126508 658443 509
599741 93511 470
374277 487014 449
922429 149814 525
518403 974181 525
633348 625420 509
78087 915735 525
212573 181111 373
897125 437148 525
661897 664576 367
225355 748766 509
549383 380122 470
14357 331491 443
323779 217995 443
924109 979245 507
863950 173847 525
281234 453220 449
358980 651327 509
195664 373406 443
276975 422149 449
655755 590624 509
530483 398565 470
727499 728097 318
332057 682027 509
782156 716079 468
750639 505112 509
996905 821520 525
768855 207150 509
580677 507764 470
80169 214486 383
265696 257024 407
756515 538307 509
189448 24339 383
468553 452795 444
368671 813205 509
916619 382695 525
528142 227963 470
791788 943709 525
890612 597276 525
138642 68955 354
583565 740439 509
623101 673343 509
618615 717263 509
795020 775066 437
143917 194142 383
376117 670633 509
820290 331875 509
514304 219029 470
545233 489897 470
100351 893709 525
617918 458173 470
448810 904019 525
532881 692496 509
366672 677099 509
412389 799128 509
940769 675992 525
342547 307444 384
947423 135405 525
963474 905914 507
257480 877938 525
774059 181199 509
189283 566540 470
255549 69288 443
761246 495673 509
742491 867404 525
896753 592884 525
218083 911276 525
778393 572611 509
812491 425487 509
947329 312696 525
931627 108777 525
210867 687196 509
593910 76915 470
634564 154864 509
326383 547970 470
354891 600776 470
935639 389779 525
880015 383151 525
942122 415565 525
361495 661599 509
6109 594770 470
429160 107814 449
658339 720327 504
429383 231940 449
812336 860143 525
978690 590826 525
291029 410166 449
504562 553119 470
927602 791162 525
506272 746447 509
931928 165704 525
477357 924438 525
72341 207777 383
552398 194024 470
499667 189380 449
890278 579961 525
213036 648863 509
343037 412762 449
841391 680655 525
134641 379024 443
200826 641326 509
224610 44671 386
896583 556329 525
369349 999317 525
559748 365899 470
288427 617045 470
142718 968396 525
48535 298081 443
232600 281895 407
424750 29335 449
849339 140622 525
54456 880588 525
670274 929038 525
101817 935160 525
428343 244850 449
889641 608350 525
856277 862323 375
346604 496097 449
612243 161490 470
624685 242000 470
293737 34709 443
77280 503048 449
294041 159134 443
711926 57204 509
83387 204527 383
853952 135274 525
508730 364708 449
108486 748503 509
465304 683839 509
650014 641100 416
989014 225820 525
144669 83561 375
314136 856140 525
50859 722141 509
693536 496366 509
359298 694828 509
243690 409286 441
990723 940622 458
124807 725285 509
110237 89773 354
393132 426897 449
938640 353882 525
732504 592721 509
972795 914815 507
113460 285576 443
810067 496777 509
276086 309891 389
527175 397515 470
678301 751807 504
820569 949068 525
723541 90392 509
207115 210882 342
631427 710124 504
277066 47471 443
832440 35472 509
133050 107048 349
561014 632533 509
727893 169420 509
870972 829540 525
838249 763880 525
746594 460939 509
859156 920036 476
225962 681109 509
384159 634073 509
565761 513264 452
177345 176963 334
565204 992447 525
45500 94796 351
150573 791319 509
34646 57016 340
629716 248320 509
814278 934842 525
832865 417509 509
300002 893137 525
957415 542785 525
318905 468307 449
174836 549320 470
422241 632309 509
712403 772601 468
296161 692606 509
611093 829846 509
896813 566101 525
435454 409115 449
935470 414035 525
932086 369406 525
412426 192455 449
973026 441687 525
764548 966119 525
246293 542522 470
866406 218537 525
653595 15147 509
909761 138926 525
575076 348144 470
288002 510500 449
317821 282443 389
967494 587319 525
517211 47925 470
708480 47619 509
662176 504473 509
523342 790324 509
776992 456085 509
996429 763477 525
921448 791905 525
409156 554127 470
591809 243470 470
129594 641182 509
365865 924876 525
124318 460504 449
397376 979647 525
979779 570567 525
732055 31025 509
525999 436117 470
762044 63745 509
572341 112516 470
922235 890598 476
791299 616983 509
905597 359588 525
264769 416926 449
516467 499470 470
213892 708507 509
459964 694823 509
470097 863178 525
227762 919479 525
601758 981233 525
534901 936415 525
224910 383140 443
22479 240077 443
547001 793750 509
973666 566664 525
635703 404846 509
730476 677447 504
706694 382403 509
383220 482469 449
957935 447105 525
522951 981580 525
24681 243562 443
494511 352706 449
105909 348311 443
204291 994787 525
691812 555132 509
855598 778188 525
677309 401295 509
790821 470039 509
631155 802168 504
943549 7784 525
690448 187768 509
298934 811482 509
365456 536796 470
489540 610960 470
202756 820497 509
169351 427432 449
796991 617641 509
337241 664229 509
604180 588640 403
397723 890434 525
498492 168951 449
968095 583236 525
703287 799577 504
121354 941420 525
101914 834406 509
193928 510767 449
906192 847488 445
54539 557400 470
873493 962298 507
507038 634440 509
826527 325119 509
373368 721458 509
659935 267321 509
94706 58425 351
327909 700015 509
703014 63071 509
449146 379625 449
487887 892301 525
149077 75958 375
871850 929809 476
855674 81052 525
979121 734113 525
289186 886031 525
20871 260596 443
671232 95693 509
928448 903039 476
769991 681886 504
184306 815962 509
686176 588323 509
281797 695638 509
928930 663951 525
351854 663287 509
234632 374456 441
647771 456010 509
973311 29855 525
478329 972533 525
145227 657865 509
959877 26362 525
939246 328350 525
816524 559049 509
508884 93348 449
298576 774648 509
500567 811318 509
492139 897647 525
390480 329343 441
277254 850246 525
874914 772845 525
596174 722359 509
676730 707995 504
475140 360089 449
738195 701687 504
605709 768925 509
411012 745875 509
867158 467074 525
776745 446112 509
91592 85109 333
432628 302522 449
196095 623273 470
546204 294506 470
701688 832318 504
966674 961811 414
486361 550553 470
751241 800988 468
834988 354644 509
180522 500674 449
596318 638462 509
771860 242985 509
821107 439762 509
767581 591227 509
4040 995367 525
963399 810501 525
396242 489911 449
364710 463145 449
142096 999337 525
243131 96642 443
192091 771537 509
965076 944277 414
525525 622973 452
928957 812906 525
893473 977272 507
666869 693228 442
316818 178429 443
380650 941692 525
673719 604652 509
855073 274733 525
753181 898501 525
556813 732129 509
731157 547776 509
178105 148938 383
852527 11579 525
845487 441917 525
78228 662786 509
635730 636371 310
415390 276344 449
449128 278984 449
646277 532898 509
394372 533007 470
186422 237829 443
179019 368386 443
148874 281501 443
679977 827999 504
395935 121591 443
877208 452817 525
360885 282227 441
947072 18183 525
283292 664510 509
522746 406944 470
660931 982081 525
749794 36092 509
899582 801090 525
622144 13333 470
92157 653783 509
241242 801940 509
658469 402611 509
887320 758022 525
694295 620426 509
252869 449152 449
695183 594797 509
829596 164205 509
335670 497345 449
448955 886464 525
192069 248683 443
222970 384696 443
787661 100807 509
52941 334658 443
350563 925688 525
770918 998747 525
896362 358411 525
704709 151498 509
202737 222003 386
246037 198300 443
662732 108844 509
587422 796883 509
967086 464658 525
639671 130111 509
796655 277395 509
492301 531666 470
920948 986644 507
16374 44823 324
906279 216831 525
457888 968275 525
641202 732189 504
74473 615650 470
732501 695770 504
609389 373258 470
699894 116196 509
884033 383988 525
672356 101040 509
187000 8403 383
151687 57482 375
825011 737153 468
282947 891262 525
505845 443658 444
534204 698065 509
499637 791573 509
345595 523062 470
950964 672610 525
404197 692535 509
193897 388489 443
939471 636958 525
553860 76636 470
998506 30158 525
210520 561405 470
357752 170776 443
339434 681565 509
236212 976020 525
550845 830957 509
963776 168769 525
172336 438900 449
734743 471583 509
936570 83071 525
622136 23872 470
947480 961536 414
741144 335001 509
920118 80570 525
178101 381929 443
222385 781814 509
58167 919677 525
439558 728241 509
107670 381421 443
923335 671266 525
658607 835860 504
295999 821253 509
970140 39058 525
812232 733551 468
688814 437031 509
594091 283365 470
354370 217334 443
842660 782647 525
132888 476321 449
525824 88510 470
790604 491286 509
301959 179309 443
430808 166647 449
52997 592085 470
885215 848580 432
443655 537109 470
871441 859074 388
457061 321037 449
390328 751875 509
437577 626826 509
316668 221571 443
808756 63029 509
495278 966623 525
651404 760700 504
868977 284378 525
67855 882688 525
803939 616877 509
557046 452491 470
337554 262534 407
473001 847159 525
758391 130015 509
375071 215207 443
470537 438222 444
236046 33600 443
732127 380558 509
718341 289732 509
920815 102980 525
915633 386003 525
503957 50908 449
23115 176704 383
109399 656725 509
871685 977431 507
428264 142377 449
788303 750951 468
458172 612864 470
384704 916645 525
998817 6010 525
288901 173295 443
786335 746795 468
398977 464827 449
999445 814840 525
500765 886765 525
104787 848421 525
916717 779892 525
73370 297690 443
706794 965681 525
165294 278772 443
845684 616224 525
87349 292057 443
965618 933202 507
802925 952284 525
815035 870311 525
165273 382030 443
278020 898520 525
121236 611321 470
534884 444298 470
187847 40853 383
456959 139281 449
562160 666216 509
821007 268653 509
149248 139947 375
192582 880391 525
751200 317202 509
655702 403263 509
617285 639569 509
898912 212947 525
882574 662596 525
74200 951146 525
820714 666907 504
607274 205982 470
582920 37872 470
563321 702046 509
251832 574370 470
479760 30866 449
818078 993607 525
46910 77428 351
467115 878587 525
466387 431064 444
387909 70139 443
66199 979670 525
451944 19565 449
990538 895141 507
222059 80485 386
726145 195319 509
913698 838784 476
623846 993153 525
643050 321299 509
978684 623835 525
482636 513222 470
720336 790481 468
795736 504469 509
548573 505382 470
748341 321751 509
755688 402752 509
341249 916947 525
283707 182224 443
354915 982916 525
583053 161162 470
923126 554017 525
73475 225297 386
331777 866276 525
741364 167076 509
665626 133596 509
63457 428264 449
56556 318344 443
303724 429505 449
599659 91968 470
400802 402021 387
133431 308358 443
36845 314658 443
954262 136654 525
203946 620111 470
965934 705219 525
20423 640134 509
893695 720747 525
545543 195324 470
782424 38912 509
320184 428822 449
620026 887687 525
312784 69629 443
764633 923805 525
543081 831013 509
432617 513907 470
408872 698903 509
895076 103359 525
38614 383791 443
156134 365230 443
790017 271917 509
127766 688722 509
153027 222559 386
794715 138337 509
228680 260423 443
254920 983400 525
697064 357912 509
632362 336118 509
559091 354178 470
870774 671907 525
556947 336670 470
645056 14805 509
408424 63222 443
837758 19133 509
302663 596478 470
795763 79260 509
294385 965774 525
659679 206464 509
155206 228201 386
830170 844168 525
663214 129062 509
54781 969029 525
293689 938988 525
641565 206461 509
912353 867519 476
801821 707190 468
765843 707562 424
299738 187327 443
49897 604293 470
39351 476352 449
512164 709302 509
294687 738508 509
553521 5659 470
523034 179652 470
993480 584596 525
6902 971916 525
731720 992255 525
512594 179979 470
759947 16281 509
766260 403756 509
967345 822156 525
898835 274457 525
900091 752776 525
688503 340834 509
336429 898727 525
675554 348614 509
197529 510494 449
991328 273364 525
91961 908323 525
924904 467254 525
383349 915795 525
622497 387232 470
358992 668456 509
949571 984947 458
529274 560661 452
818081 942076 525
75665 659607 509
156932 39856 383
772183 462421 509
479227 998170 525
619644 51929 470
476654 836701 509
841779 265476 525
808347 451779 509
948669 539900 525
674433 425367 509
685584 623013 509
268292 861310 525
916177 735120 525
644376 191301 509
27482 686782 509
325519 697398 509
591115 994217 525
966381 263724 525
671276 937970 525
661786 922176 525
53934 563093 470
15337 131241 354
254083 890032 525
511550 107495 449
732711 17212 509
726532 849225 525
868502 80493 525
647991 700258 442
595128 640066 509
310576 498335 449
956295 654349 525
321600 244739 407
51750 393298 443
624668 675043 509
669941 792794 504
581534 800816 509
752388 585115 509
485661 737414 509
271644 273069 314
57729 800326 509
878505 554502 525
142493 714750 509
579587 586255 434
482202 831119 509
139224 2861 354
720222 47096 509
783888 569025 509
311928 573951 470
82780 324569 443
451388 488077 444
2905 952845 525
801735 178334 509
997161 846165 507
945124 738903 525
895563 672701 525
287707 710960 509
176722 690927 509
605448 895175 525
302808 123866 443
94901 947057 525
23587 167200 383
316509 35860 443
194050 236265 443
646249 509973 509
513109 613224 452
752928 86616 509
595760 867926 525
118898 341265 443
757234 402146 509
922608 387261 525
234376 433547 449
215454 673910 509
146326 996539 525
357445 150972 443
544327 749097 509
719704 668807 504
69983 44975 340
522917 508648 470
734076 8312 509
945287 866277 507
152275 254865 443
98611 615761 470
861543 489986 525
112280 496095 449
345396 191257 443
303392 258413 407
883969 434442 525
682587 83190 509
809790 766691 468
251046 836284 509
284227 136012 443
622257 986692 525
566961 33450 470
361982 607346 470
273940 982991 525
570928 234622 470
187938 448758 449
875888 257050 525
149218 707752 509
319581 681717 509
891490 205390 525
855939 898443 445
396718 850428 525
168657 269483 443
430656 552813 470
768721 737782 468
562005 911720 525
666588 313148 509
825385 708025 468
966699 352635 525
645851 618248 509
804984 960185 525
697896 829899 504
565011 538184 452
822305 241531 509
214085 69807 383
776160 343439 509
223482 301429 443
628753 667863 442
392069 641212 509
221241 629121 509
302064 552751 470
28984 462676 449
952058 101963 525
570124 981447 525
381435 24684 443
539412 979745 525
825199 879266 525
462671 97123 449
439890 789288 509
237262 160987 443
731406 889021 525
665001 228100 509
927862 932972 383
938757 901690 476
124082 457058 449
336698 901516 525
84354 846029 525
76075 72600 325
288955 95207 443
250537 86319 443
46472 586177 470
578111 696135 509
878875 388396 525
698433 603568 509
104106 600249 470
359146 480139 449
395295 294452 441
856226 19852 525
269690 672707 509
650238 293627 509
374178 795589 509
440890 503876 444
58395 311277 443
659637 705054 504
991981 985694 396
475957 516635 470
564756 106174 470
205449 602014 470
899041 93081 525
936644 951331 507
67277 792134 509
369338 882056 525
995091 813571 525
143953 397040 443
889440 210754 525
562602 774794 509
176122 530230 470
968524 302016 525
544797 690523 509
665520 308505 509
45301 639653 509
647373 420563 509
883512 426979 525
486302 236528 449
900437 759625 525
885150 590897 525
308101 408494 441
281247 525611 470
596403 831563 509
520753 30606 470
418074 242146 449
190756 678489 509
297502 6652 443
59354 904592 525
955896 810380 525
832208 884359 525
651463 689429 442
5960 579713 470
174491 94804 383
737104 161093 509
940181 112174 525
810430 164820 509
241456 270179 407
346315 27094 443
903235 290629 525
698936 372873 509
13912 328925 443
884200 746957 525
558317 829691 509
59591 296617 443
108055 429932 449
426407 305312 449
876420 414279 525
752194 519970 509
590815 361235 470
678838 598830 509
23168 928501 525
944895 675811 525
452116 873917 525
954943 753879 525
473759 688442 509
942282 342836 525
388757 782061 509
868813 188598 525
775331 730406 468
344977 170742 443
240464 26945 443
910197 931234 476
725575 319191 509
119547 886627 525
128082 72301 354
547954 9628 470
638906 512939 509
194459 231682 443
609632 839131 525
654469 189374 509
100459 117651 354
112379 291965 443
854714 66559 525
102021 847125 525
864078 739676 525
65773 184101 383
447816 777055 509
762861 858907 525
781164 146694 509
620646 669039 509
605298 996117 525
249231 605896 470
638691 796110 504
423656 432852 418
831331 416884 509
448149 996725 525
165741 399741 443
68925 908866 525
797552 81481 509
876827 264802 525
196296 146878 383
839498 658379 525
998428 834675 525
732821 693647 504
698231 575696 509
176984 597043 470
668913 936728 525
740916 982586 525
154473 85053 375
530620 760009 509
630965 458087 509
741089 425609 509
389287 49109 443
647237 102071 509
